Estadística descriptiva con tidyverse
…
count: false
 
Función select()
.panel1-chunk_40-auto[

```r
elecciones   #<<
```
]
 
.panel2-chunk_40-auto[

```
# A tibble: 196 × 7
   cod_dep_reniec cod_prov_reniec REGION   PROVINCIA       cod_p…¹ casti…² keiko
   <chr>          <chr>           <chr>    <chr>           <chr>   <chr>   <chr>
 1 01             0101            AMAZONAS CHACHAPOYAS     0101    55.15   36.7…
 2 01             0102            AMAZONAS BAGUA           0102    65.544  28.8 
 3 01             0103            AMAZONAS BONGARA         0103    57.451  35.7…
 4 01             0104            AMAZONAS LUYA            0105    56.686  37.0…
 5 01             0105            AMAZONAS RODRIGUEZ DE M… 0106    53.112  38.6…
 6 01             0106            AMAZONAS CONDORCANQUI    0104    92.161  4.59 
 7 01             0107            AMAZONAS UTCUBAMBA       0107    61.776  32.4…
 8 02             0201            ANCASH   HUARAZ          0201    58.977  33.3…
 9 02             0202            ANCASH   AIJA            0202    58.935  35.8…
10 02             0203            ANCASH   BOLOGNESI       0205    61.926  32.1…
# … with 186 more rows, and abbreviated variable names ¹​cod_prov_inei,
#   ²​castillo
```
…
Función select()
.panel1-chunk_40-auto[

```r
elecciones %>%
  select(3,4,6,7)  #<<
```
]
 
.panel2-chunk_40-auto[

```
# A tibble: 196 × 4
   REGION   PROVINCIA            castillo keiko             
   <chr>    <chr>                <chr>    <chr>             
 1 AMAZONAS CHACHAPOYAS          55.15    36.763            
 2 AMAZONAS BAGUA                65.544   28.8              
 3 AMAZONAS BONGARA              57.451   35.737            
 4 AMAZONAS LUYA                 56.686   37.088            
 5 AMAZONAS RODRIGUEZ DE MENDOZA 53.112   38.672            
 6 AMAZONAS CONDORCANQUI         92.161   4.59              
 7 AMAZONAS UTCUBAMBA            61.776   32.466000000000001
 8 ANCASH   HUARAZ               58.977   33.384            
 9 ANCASH   AIJA                 58.935   35.817            
10 ANCASH   BOLOGNESI            61.926   32.163            
# … with 186 more rows
```
…
count: false
 
Función arrange()
.panel1-chunk_41-auto[

```r
elecciones   #<<
```
]
 
.panel2-chunk_41-auto[

```
# A tibble: 196 × 7
   cod_dep_reniec cod_prov_reniec REGION   PROVINCIA       cod_p…¹ casti…² keiko
   <chr>          <chr>           <chr>    <chr>           <chr>   <chr>   <chr>
 1 01             0101            AMAZONAS CHACHAPOYAS     0101    55.15   36.7…
 2 01             0102            AMAZONAS BAGUA           0102    65.544  28.8 
 3 01             0103            AMAZONAS BONGARA         0103    57.451  35.7…
 4 01             0104            AMAZONAS LUYA            0105    56.686  37.0…
 5 01             0105            AMAZONAS RODRIGUEZ DE M… 0106    53.112  38.6…
 6 01             0106            AMAZONAS CONDORCANQUI    0104    92.161  4.59 
 7 01             0107            AMAZONAS UTCUBAMBA       0107    61.776  32.4…
 8 02             0201            ANCASH   HUARAZ          0201    58.977  33.3…
 9 02             0202            ANCASH   AIJA            0202    58.935  35.8…
10 02             0203            ANCASH   BOLOGNESI       0205    61.926  32.1…
# … with 186 more rows, and abbreviated variable names ¹​cod_prov_inei,
#   ²​castillo
```
…
Función arrange()
.panel1-chunk_41-auto[

```r
elecciones %>%
  select(3,4,6,7)   #<<
```
]
 
.panel2-chunk_41-auto[

```
# A tibble: 196 × 4
   REGION   PROVINCIA            castillo keiko             
   <chr>    <chr>                <chr>    <chr>             
 1 AMAZONAS CHACHAPOYAS          55.15    36.763            
 2 AMAZONAS BAGUA                65.544   28.8              
 3 AMAZONAS BONGARA              57.451   35.737            
 4 AMAZONAS LUYA                 56.686   37.088            
 5 AMAZONAS RODRIGUEZ DE MENDOZA 53.112   38.672            
 6 AMAZONAS CONDORCANQUI         92.161   4.59              
 7 AMAZONAS UTCUBAMBA            61.776   32.466000000000001
 8 ANCASH   HUARAZ               58.977   33.384            
 9 ANCASH   AIJA                 58.935   35.817            
10 ANCASH   BOLOGNESI            61.926   32.163            
# … with 186 more rows
```
…
Función arrange()
.panel1-chunk_41-auto[

```r
elecciones %>%
  select(3,4,6,7) %>%
  arrange(desc(castillo))  #<<
```
]
 
.panel2-chunk_41-auto[

```
# A tibble: 196 × 4
   REGION   PROVINCIA             castillo keiko
   <chr>    <chr>                 <chr>    <chr>
 1 PUNO     AZANGARO              92.249   4.414
 2 AMAZONAS CONDORCANQUI          92.161   4.59 
 3 CUSCO    CHUMBIVILCAS          91.693   3.368
 4 CUSCO    CANAS                 91.364   4.168
 5 PUNO     EL COLLAO             91.065   5.093
 6 PUNO     HUANCANE              90.997   4.874
 7 PUNO     CHUCUITO              90.296   6.062
 8 PUNO     MOHO                  90.279   5.061
 9 PUNO     SAN ANTONIO DE PUTINA 89.659   6.491
10 PUNO     MELGAR                89.261   6.37 
# … with 186 more rows
```
…
count: false
 
Función filter()
.panel1-chunk_42-auto[

```r
elecciones   #<<
```
]
 
.panel2-chunk_42-auto[

```
# A tibble: 196 × 7
   cod_dep_reniec cod_prov_reniec REGION   PROVINCIA       cod_p…¹ casti…² keiko
   <chr>          <chr>           <chr>    <chr>           <chr>   <chr>   <chr>
 1 01             0101            AMAZONAS CHACHAPOYAS     0101    55.15   36.7…
 2 01             0102            AMAZONAS BAGUA           0102    65.544  28.8 
 3 01             0103            AMAZONAS BONGARA         0103    57.451  35.7…
 4 01             0104            AMAZONAS LUYA            0105    56.686  37.0…
 5 01             0105            AMAZONAS RODRIGUEZ DE M… 0106    53.112  38.6…
 6 01             0106            AMAZONAS CONDORCANQUI    0104    92.161  4.59 
 7 01             0107            AMAZONAS UTCUBAMBA       0107    61.776  32.4…
 8 02             0201            ANCASH   HUARAZ          0201    58.977  33.3…
 9 02             0202            ANCASH   AIJA            0202    58.935  35.8…
10 02             0203            ANCASH   BOLOGNESI       0205    61.926  32.1…
# … with 186 more rows, and abbreviated variable names ¹​cod_prov_inei,
#   ²​castillo
```
…
Función filter()
.panel1-chunk_42-auto[

```r
elecciones %>%
  select(3,4,6,7)   #<<
```
]
 
.panel2-chunk_42-auto[

```
# A tibble: 196 × 4
   REGION   PROVINCIA            castillo keiko             
   <chr>    <chr>                <chr>    <chr>             
 1 AMAZONAS CHACHAPOYAS          55.15    36.763            
 2 AMAZONAS BAGUA                65.544   28.8              
 3 AMAZONAS BONGARA              57.451   35.737            
 4 AMAZONAS LUYA                 56.686   37.088            
 5 AMAZONAS RODRIGUEZ DE MENDOZA 53.112   38.672            
 6 AMAZONAS CONDORCANQUI         92.161   4.59              
 7 AMAZONAS UTCUBAMBA            61.776   32.466000000000001
 8 ANCASH   HUARAZ               58.977   33.384            
 9 ANCASH   AIJA                 58.935   35.817            
10 ANCASH   BOLOGNESI            61.926   32.163            
# … with 186 more rows
```
…
Función filter()
.panel1-chunk_42-auto[

```r
elecciones %>%
  select(3,4,6,7) %>%
  arrange(desc(castillo))   #<<
```
]
 
.panel2-chunk_42-auto[

```
# A tibble: 196 × 4
   REGION   PROVINCIA             castillo keiko
   <chr>    <chr>                 <chr>    <chr>
 1 PUNO     AZANGARO              92.249   4.414
 2 AMAZONAS CONDORCANQUI          92.161   4.59 
 3 CUSCO    CHUMBIVILCAS          91.693   3.368
 4 CUSCO    CANAS                 91.364   4.168
 5 PUNO     EL COLLAO             91.065   5.093
 6 PUNO     HUANCANE              90.997   4.874
 7 PUNO     CHUCUITO              90.296   6.062
 8 PUNO     MOHO                  90.279   5.061
 9 PUNO     SAN ANTONIO DE PUTINA 89.659   6.491
10 PUNO     MELGAR                89.261   6.37 
# … with 186 more rows
```
…
Función filter()
.panel1-chunk_42-auto[

```r
elecciones %>%
  select(3,4,6,7) %>%
  arrange(desc(castillo)) %>%
  filter(castillo > 50.00)  #<<
```
]
 
.panel2-chunk_42-auto[

```
# A tibble: 141 × 4
   REGION   PROVINCIA             castillo keiko
   <chr>    <chr>                 <chr>    <chr>
 1 PUNO     AZANGARO              92.249   4.414
 2 AMAZONAS CONDORCANQUI          92.161   4.59 
 3 CUSCO    CHUMBIVILCAS          91.693   3.368
 4 CUSCO    CANAS                 91.364   4.168
 5 PUNO     EL COLLAO             91.065   5.093
 6 PUNO     HUANCANE              90.997   4.874
 7 PUNO     CHUCUITO              90.296   6.062
 8 PUNO     MOHO                  90.279   5.061
 9 PUNO     SAN ANTONIO DE PUTINA 89.659   6.491
10 PUNO     MELGAR                89.261   6.37 
# … with 131 more rows
```
…
Función filter()
.panel1-chunk_42-auto[

```r
elecciones %>%
  select(3,4,6,7) %>%
  arrange(desc(castillo)) %>%
  filter(castillo > 50.00)
```
]
 
.panel2-chunk_42-auto[

```
# A tibble: 141 × 4
   REGION   PROVINCIA             castillo keiko
   <chr>    <chr>                 <chr>    <chr>
 1 PUNO     AZANGARO              92.249   4.414
 2 AMAZONAS CONDORCANQUI          92.161   4.59 
 3 CUSCO    CHUMBIVILCAS          91.693   3.368
 4 CUSCO    CANAS                 91.364   4.168
 5 PUNO     EL COLLAO             91.065   5.093
 6 PUNO     HUANCANE              90.997   4.874
 7 PUNO     CHUCUITO              90.296   6.062
 8 PUNO     MOHO                  90.279   5.061
 9 PUNO     SAN ANTONIO DE PUTINA 89.659   6.491
10 PUNO     MELGAR                89.261   6.37 
# … with 131 more rows
```
…
count: false
 
Función mutate()
.panel1-chunk_43-auto[

```r
elecciones   #<<
```
]
 
.panel2-chunk_43-auto[

```
# A tibble: 196 × 7
   cod_dep_reniec cod_prov_reniec REGION   PROVINCIA       cod_p…¹ casti…² keiko
   <chr>          <chr>           <chr>    <chr>           <chr>   <chr>   <chr>
 1 01             0101            AMAZONAS CHACHAPOYAS     0101    55.15   36.7…
 2 01             0102            AMAZONAS BAGUA           0102    65.544  28.8 
 3 01             0103            AMAZONAS BONGARA         0103    57.451  35.7…
 4 01             0104            AMAZONAS LUYA            0105    56.686  37.0…
 5 01             0105            AMAZONAS RODRIGUEZ DE M… 0106    53.112  38.6…
 6 01             0106            AMAZONAS CONDORCANQUI    0104    92.161  4.59 
 7 01             0107            AMAZONAS UTCUBAMBA       0107    61.776  32.4…
 8 02             0201            ANCASH   HUARAZ          0201    58.977  33.3…
 9 02             0202            ANCASH   AIJA            0202    58.935  35.8…
10 02             0203            ANCASH   BOLOGNESI       0205    61.926  32.1…
# … with 186 more rows, and abbreviated variable names ¹​cod_prov_inei,
#   ²​castillo
```
…
Función mutate()
.panel1-chunk_43-auto[

```r
elecciones %>%
  select(3,4,6,7)   #<<
```
]
 
.panel2-chunk_43-auto[

```
# A tibble: 196 × 4
   REGION   PROVINCIA            castillo keiko             
   <chr>    <chr>                <chr>    <chr>             
 1 AMAZONAS CHACHAPOYAS          55.15    36.763            
 2 AMAZONAS BAGUA                65.544   28.8              
 3 AMAZONAS BONGARA              57.451   35.737            
 4 AMAZONAS LUYA                 56.686   37.088            
 5 AMAZONAS RODRIGUEZ DE MENDOZA 53.112   38.672            
 6 AMAZONAS CONDORCANQUI         92.161   4.59              
 7 AMAZONAS UTCUBAMBA            61.776   32.466000000000001
 8 ANCASH   HUARAZ               58.977   33.384            
 9 ANCASH   AIJA                 58.935   35.817            
10 ANCASH   BOLOGNESI            61.926   32.163            
# … with 186 more rows
```
…
Función mutate()
.panel1-chunk_43-auto[

```r
elecciones %>%
  select(3,4,6,7) %>%
  mutate(castillo=as.numeric(castillo))   #<<
```
]
 
.panel2-chunk_43-auto[

```
# A tibble: 196 × 4
   REGION   PROVINCIA            castillo keiko             
   <chr>    <chr>                   <dbl> <chr>             
 1 AMAZONAS CHACHAPOYAS              55.2 36.763            
 2 AMAZONAS BAGUA                    65.5 28.8              
 3 AMAZONAS BONGARA                  57.5 35.737            
 4 AMAZONAS LUYA                     56.7 37.088            
 5 AMAZONAS RODRIGUEZ DE MENDOZA     53.1 38.672            
 6 AMAZONAS CONDORCANQUI             92.2 4.59              
 7 AMAZONAS UTCUBAMBA                61.8 32.466000000000001
 8 ANCASH   HUARAZ                   59.0 33.384            
 9 ANCASH   AIJA                     58.9 35.817            
10 ANCASH   BOLOGNESI                61.9 32.163            
# … with 186 more rows
```
…
Función mutate()
.panel1-chunk_43-auto[

```r
elecciones %>%
  select(3,4,6,7) %>%
  mutate(castillo=as.numeric(castillo)) %>%
  mutate(keiko=as.numeric(keiko))   #<<
```
]
 
.panel2-chunk_43-auto[

```
# A tibble: 196 × 4
   REGION   PROVINCIA            castillo keiko
   <chr>    <chr>                   <dbl> <dbl>
 1 AMAZONAS CHACHAPOYAS              55.2 36.8 
 2 AMAZONAS BAGUA                    65.5 28.8 
 3 AMAZONAS BONGARA                  57.5 35.7 
 4 AMAZONAS LUYA                     56.7 37.1 
 5 AMAZONAS RODRIGUEZ DE MENDOZA     53.1 38.7 
 6 AMAZONAS CONDORCANQUI             92.2  4.59
 7 AMAZONAS UTCUBAMBA                61.8 32.5 
 8 ANCASH   HUARAZ                   59.0 33.4 
 9 ANCASH   AIJA                     58.9 35.8 
10 ANCASH   BOLOGNESI                61.9 32.2 
# … with 186 more rows
```
…
```r
elecciones %>%
  select(3,4,6,7) %>%
  mutate(castillo=as.numeric(castillo)) %>%
  mutate(keiko=as.numeric(keiko)) %>%
  mutate(voto_total=castillo+keiko)  #<<
```
]
 
.panel2-chunk_43-auto[

```
# A tibble: 196 × 5
   REGION   PROVINCIA            castillo keiko voto_total
   <chr>    <chr>                   <dbl> <dbl>      <dbl>
 1 AMAZONAS CHACHAPOYAS              55.2 36.8        91.9
 2 AMAZONAS BAGUA                    65.5 28.8        94.3
 3 AMAZONAS BONGARA                  57.5 35.7        93.2
 4 AMAZONAS LUYA                     56.7 37.1        93.8
 5 AMAZONAS RODRIGUEZ DE MENDOZA     53.1 38.7        91.8
 6 AMAZONAS CONDORCANQUI             92.2  4.59       96.8
 7 AMAZONAS UTCUBAMBA                61.8 32.5        94.2
 8 ANCASH   HUARAZ                   59.0 33.4        92.4
 9 ANCASH   AIJA                     58.9 35.8        94.8
10 ANCASH   BOLOGNESI                61.9 32.2        94.1
# … with 186 more rows
```
…
```r
elecciones %>%
  select(3,4,6,7) %>%
  mutate(castillo=as.numeric(castillo)) %>%
  mutate(keiko=as.numeric(keiko)) %>%
  mutate(voto_total=castillo+keiko)
```
]
 
.panel2-chunk_43-auto[

```
# A tibble: 196 × 5
   REGION   PROVINCIA            castillo keiko voto_total
   <chr>    <chr>                   <dbl> <dbl>      <dbl>
 1 AMAZONAS CHACHAPOYAS              55.2 36.8        91.9
 2 AMAZONAS BAGUA                    65.5 28.8        94.3
 3 AMAZONAS BONGARA                  57.5 35.7        93.2
 4 AMAZONAS LUYA                     56.7 37.1        93.8
 5 AMAZONAS RODRIGUEZ DE MENDOZA     53.1 38.7        91.8
 6 AMAZONAS CONDORCANQUI             92.2  4.59       96.8
 7 AMAZONAS UTCUBAMBA                61.8 32.5        94.2
 8 ANCASH   HUARAZ                   59.0 33.4        92.4
 9 ANCASH   AIJA                     58.9 35.8        94.8
10 ANCASH   BOLOGNESI                61.9 32.2        94.1
# … with 186 more rows
```
…
count: false
 
Función summarise()
.panel1-chunk_44-auto[

```r
elecciones   #<<
```
]
 
.panel2-chunk_44-auto[

```
# A tibble: 196 × 7
   cod_dep_reniec cod_prov_reniec REGION   PROVINCIA       cod_p…¹ casti…² keiko
   <chr>          <chr>           <chr>    <chr>           <chr>   <chr>   <chr>
 1 01             0101            AMAZONAS CHACHAPOYAS     0101    55.15   36.7…
 2 01             0102            AMAZONAS BAGUA           0102    65.544  28.8 
 3 01             0103            AMAZONAS BONGARA         0103    57.451  35.7…
 4 01             0104            AMAZONAS LUYA            0105    56.686  37.0…
 5 01             0105            AMAZONAS RODRIGUEZ DE M… 0106    53.112  38.6…
 6 01             0106            AMAZONAS CONDORCANQUI    0104    92.161  4.59 
 7 01             0107            AMAZONAS UTCUBAMBA       0107    61.776  32.4…
 8 02             0201            ANCASH   HUARAZ          0201    58.977  33.3…
 9 02             0202            ANCASH   AIJA            0202    58.935  35.8…
10 02             0203            ANCASH   BOLOGNESI       0205    61.926  32.1…
# … with 186 more rows, and abbreviated variable names ¹​cod_prov_inei,
#   ²​castillo
```
…
Función summarise()
.panel1-chunk_44-auto[

```r
elecciones %>%
  select(3,4,6,7)   #<<
```
]
 
.panel2-chunk_44-auto[

```
# A tibble: 196 × 4
   REGION   PROVINCIA            castillo keiko             
   <chr>    <chr>                <chr>    <chr>             
 1 AMAZONAS CHACHAPOYAS          55.15    36.763            
 2 AMAZONAS BAGUA                65.544   28.8              
 3 AMAZONAS BONGARA              57.451   35.737            
 4 AMAZONAS LUYA                 56.686   37.088            
 5 AMAZONAS RODRIGUEZ DE MENDOZA 53.112   38.672            
 6 AMAZONAS CONDORCANQUI         92.161   4.59              
 7 AMAZONAS UTCUBAMBA            61.776   32.466000000000001
 8 ANCASH   HUARAZ               58.977   33.384            
 9 ANCASH   AIJA                 58.935   35.817            
10 ANCASH   BOLOGNESI            61.926   32.163            
# … with 186 more rows
```
…
```r
elecciones %>%
  select(3,4,6,7) %>%
  mutate(castillo=as.numeric(castillo),  #<<
         keiko=as.numeric(keiko),  #<<
         voto_total=castillo+keiko)   #<<
```
]
 
.panel2-chunk_44-auto[

```
# A tibble: 196 × 5
   REGION   PROVINCIA            castillo keiko voto_total
   <chr>    <chr>                   <dbl> <dbl>      <dbl>
 1 AMAZONAS CHACHAPOYAS              55.2 36.8        91.9
 2 AMAZONAS BAGUA                    65.5 28.8        94.3
 3 AMAZONAS BONGARA                  57.5 35.7        93.2
 4 AMAZONAS LUYA                     56.7 37.1        93.8
 5 AMAZONAS RODRIGUEZ DE MENDOZA     53.1 38.7        91.8
 6 AMAZONAS CONDORCANQUI             92.2  4.59       96.8
 7 AMAZONAS UTCUBAMBA                61.8 32.5        94.2
 8 ANCASH   HUARAZ                   59.0 33.4        92.4
 9 ANCASH   AIJA                     58.9 35.8        94.8
10 ANCASH   BOLOGNESI                61.9 32.2        94.1
# … with 186 more rows
```
…
count: false
 
Función summarise()
.panel1-chunk_45-auto[

```r
elecciones   #<<
```
]
 
.panel2-chunk_45-auto[

```
# A tibble: 196 × 7
   cod_dep_reniec cod_prov_reniec REGION   PROVINCIA       cod_p…¹ casti…² keiko
   <chr>          <chr>           <chr>    <chr>           <chr>   <chr>   <chr>
 1 01             0101            AMAZONAS CHACHAPOYAS     0101    55.15   36.7…
 2 01             0102            AMAZONAS BAGUA           0102    65.544  28.8 
 3 01             0103            AMAZONAS BONGARA         0103    57.451  35.7…
 4 01             0104            AMAZONAS LUYA            0105    56.686  37.0…
 5 01             0105            AMAZONAS RODRIGUEZ DE M… 0106    53.112  38.6…
 6 01             0106            AMAZONAS CONDORCANQUI    0104    92.161  4.59 
 7 01             0107            AMAZONAS UTCUBAMBA       0107    61.776  32.4…
 8 02             0201            ANCASH   HUARAZ          0201    58.977  33.3…
 9 02             0202            ANCASH   AIJA            0202    58.935  35.8…
10 02             0203            ANCASH   BOLOGNESI       0205    61.926  32.1…
# … with 186 more rows, and abbreviated variable names ¹​cod_prov_inei,
#   ²​castillo
```
…
